ci210/picoProcessor/vhdl/saida.vcd
$date
  Thu Jun  7 13:46:46 2012
$end
$version
  GHDL v0
$end
$timescale
  1 fs
$end
$var reg 1 ! clk $end
$var reg 1 " reset $end
$var reg 8 # port_addr[7:0] $end
$var reg 8 $ port_data[7:0] $end
$var reg 1 % port_write $end
$var reg 1 & port_read $end
$var reg 1 ' port_ready $end
$var reg 1 ( int_req $end
$var reg 1 ) int_ack $end
$scope module dut $end
$var reg 1 * clk $end
$var reg 1 + reset $end
$var reg 8 , port_addr[7:0] $end
$var reg 8 - port_data[7:0] $end
$var reg 1 . port_write $end
$var reg 1 / port_read $end
$var reg 1 0 port_ready $end
$var reg 1 1 int_req $end
$var reg 1 2 int_ack $end
$var reg 12 3 pc[11:0] $end
$var reg 12 4 incr_pc[11:0] $end
$var reg 12 5 next_pc[11:0] $end
$var reg 1 6 branch_taken $end
$var reg 19 7 ir[18:0] $end
$var reg 12 8 int_pc[11:0] $end
$var reg 1 9 int_z $end
$var reg 1 : int_c $end
$var reg 1 ; int_en $end
$var reg 12 < stack_top[11:0] $end
$var reg 8 = gpr_r1[7:0] $end
$var reg 8 > gpr_r2[7:0] $end
$var reg 8 ? alu_result[7:0] $end
$var reg 1 @ alu_z $end
$var reg 1 A alu_c $end
$var reg 8 B dmem_out[7:0] $end
$var reg 1 C cc_z $end
$var reg 1 D cc_c $end
$scope module debug_monitor $end
$upscope $end
$upscope $end
$enddefinitions $end
#0
0!
0"
b00000000 #
bUUUUUUUU $
0%
0&
0'
0(
0)
0*
0+
b00000000 ,
bUUUUUUUU -
0.
0/
00
01
02
b000000000000 3
b000000000001 4
b000000010000 5
06
b1110000000000010000 7
b000000000000 8
09
0:
0;
b000000000000 <
b00000000 =
b00000000 >
b00000000 ?
1@
0A
b00000000 B
0C
0D
#5000000
1"
1+
#10000000
1!
1*
#15000000
0!
0*
#20000000
1!
1*
#25000000
0!
0"
0*
0+
#30000000
1!
1*
b000000010000 3
b000000010001 4
b000000010001 5
16
b1111100000000000000 7
#35000000
0!
0*
#40000000
1!
1*
b000000010001 3
b000000010010 4
b000000010010 5
06
b1000001100000000000 7
1;
#45000000
0!
0*
#50000000
1!
1*
b000000010010 3
b000000010011 4
b000000010011 5
b0001001101101000000 7
#55000000
0!
0*
#60000000
1!
1*
b000000010011 3
b000000010100 4
b000000010001 5
16
b1010000000011111101 7
1C
#65000000
0!
0*
#70000000
1!
1*
b000000010001 3
b000000010010 4
b000000010010 5
b1000001100000000000 7
#75000000
0!
0*
#80000000
1!
1*
b000000010010 3
b000000010011 4
b000000010011 5
06
b0001001101101000000 7
#85000000
0!
0*
#90000000
1!
1*
b000000010011 3
b000000010100 4
b000000010001 5
16
b1010000000011111101 7
#95000000
0!
0*
#100000000
1!
1*
b000000010001 3
b000000010010 4
b000000010010 5
b1000001100000000000 7
#105000000
0!
0*
#110000000
1!
1*
b000000010010 3
b000000010011 4
b000000010011 5
06
b0001001101101000000 7
#115000000
0!
0*
#120000000
1!
1*
b000000010011 3
b000000010100 4
b000000010001 5
16
b1010000000011111101 7
#125000000
0!
0*
#130000000
1!
1*
b000000010001 3
b000000010010 4
b000000010010 5
b1000001100000000000 7
#135000000
0!
0*
#140000000
1!
1*
b000000010010 3
b000000010011 4
b000000010011 5
06
b0001001101101000000 7
#145000000
0!
0*
#150000000
1!
1*
b000000010011 3
b000000010100 4
b000000010001 5
16
b1010000000011111101 7
#155000000
0!
0*
#160000000
1!
1*
b000000010001 3
b000000010010 4
b000000010010 5
b1000001100000000000 7
#165000000
0!
0*
#170000000
1!
1*
b000000010010 3
b000000010011 4
b000000010011 5
06
b0001001101101000000 7
#175000000
0!
0*
#180000000
1!
1*
b000000010011 3
b000000010100 4
b000000010001 5
16
b1010000000011111101 7
#185000000
0!
0*
#190000000
1!
1*
b000000010001 3
b000000010010 4
b000000010010 5
b1000001100000000000 7
#195000000
0!
0*
#200000000
1!
1*
b000000010010 3
b000000010011 4
b000000010011 5
06
b0001001101101000000 7
#205000000
0!
0*
#210000000
1!
1*
b000000010011 3
b000000010100 4
b000000010001 5
16
b1010000000011111101 7
#215000000
0!
0*
#220000000
1!
1*
b000000010001 3
b000000010010 4
b000000010010 5
b1000001100000000000 7
#225000000
0!
0*
#230000000
1!
1*
b000000010010 3
b000000010011 4
b000000010011 5
06
b0001001101101000000 7
#235000000
0!
0*
#240000000
1!
1*
b000000010011 3
b000000010100 4
b000000010001 5
16
b1010000000011111101 7
#245000000
0!
0*
#250000000
1!
1*
b000000010001 3
b000000010010 4
b000000010010 5
b1000001100000000000 7
#255000000
0!
1(
0*
11
b000000000001 5
#260000000
1!
1&
1)
1*
1/
12
b000000000001 3
b000000000010 4
b000000000010 5
06
b1001011100000000000 7
b000000010001 8
19
0;
#265000000
0!
b00000000 $
1'
0(
0*
b00000000 -
10
01
#270000000
1!
0&
0)
1*
0/
02
b000000000010 3
b000000000011 4
b000000000011 5
16
b1000011000000000000 7
#275000000
0!
bZZZZZZZZ $
0'
0*
bZZZZZZZZ -
00
#280000000
1!
1*
b000000000011 3
b000000000100 4
b000000000100 5
06
b1000111111000000001 7
b00000001 ?
0@
#285000000
0!
0*
#290000000
1!
1*
b000000000100 3
b000000000101 4
b000000000101 5
b0100111011000000001 7
#295000000
0!
0*
#300000000
1!
1*
b000000000101 3
b000000000110 4
b000000000110 5
16
b1000111000000000000 7
b00000000 =
b00000001 >
b00000000 ?
1@
0C
#305000000
0!
0*
#310000000
1!
1*
b000000000110 3
b000000000111 4
b000000010001 5
06
b1111010000000000000 7
b00000000 >
b00000001 B
#315000000
0!
0*
#320000000
1!
1*
b000000010001 3
b000000010010 4
b000000010010 5
16
b1000001100000000000 7
1;
1C
#325000000
0!
0*
#330000000
1!
1*
b000000010010 3
b000000010011 4
b000000010011 5
06
b0001001101101000000 7
b00000001 =
b00000001 ?
0@
b00000000 B
#335000000
0!
0*
#340000000
1!
1*
b000000010011 3
b000000010100 4
b000000010100 5
b1010000000011111101 7
b00000000 =
b00000000 ?
1@
b00000001 B
0C
#345000000
0!
0*
#350000000
1!
1*
b000000010100 3
b000000010101 4
b000000010101 5
b1000001101000000001 7
b00000001 ?
0@
b00000000 B
#355000000
0!
0*
#360000000
1!
b00001111 #
b00000000 $
1%
1*
b00001111 ,
b00000000 -
1.
b000000010101 3
b000000010110 4
b000000010110 5
16
b1001101100000001111 7
b00001111 ?
#365000000
0!
1'
0*
10
#370000000
1!
b00000000 #
bZZZZZZZZ $
0%
1*
b00000000 ,
bZZZZZZZZ -
0.
b000000010110 3
b000000010111 4
b000000010111 5
06
b0100001001000000001 7
b00000001 ?
#375000000
0!
0'
0*
00
#380000000
1!
1*
b000000010111 3
b000000011000 4
b000000010001 5
b1110000000000010001 7
b00000000 =
b00000000 ?
1@
b00000001 B
#385000000
0!
0*
#390000000
1!
1*
b000000010001 3
b000000010010 4
b000000010010 5
b1000001100000000000 7
#395000000
0!
0*
#400000000
1!
1*
b000000010010 3
b000000010011 4
b000000010011 5
b0001001101101000000 7
b00000001 =
b00000001 >
#405000000
0!
0*
#410000000
1!
1*
b000000010011 3
b000000010100 4
b000000010001 5
16
b1010000000011111101 7
b00000000 =
b00000000 >
b00000000 ?
1@
0A
b00000001 B
1C
#415000000
0!
0*
#420000000
1!
1*
b000000010001 3
b000000010010 4
b000000010010 5
b1000001100000000000 7
#425000000
0!
0*
#430000000
1!
1*
b000000010010 3
b000000010011 4
b000000010011 5
06
b0001001101101000000 7
b00000001 =
b00000001 >
#435000000
0!
0*
#440000000
1!
1*
b000000010011 3
b000000010100 4
b000000010001 5
16
b1010000000011111101 7
b00000000 =
b00000000 >
b00000000 ?
1@
0A
b00000001 B
#445000000
0!
0*
#450000000
1!
1*
b000000010001 3
b000000010010 4
b000000010010 5
b1000001100000000000 7
#455000000
0!
0*
#460000000
1!
1*
b000000010010 3
b000000010011 4
b000000010011 5
06
b0001001101101000000 7
b00000001 =
b00000001 >
#465000000
0!
0*
#470000000
1!
1*
b000000010011 3
b000000010100 4
b000000010001 5
16
b1010000000011111101 7
b00000000 =
b00000000 >
b00000000 ?
1@
0A
b00000001 B
#475000000
0!
0*
#480000000
1!
1*
b000000010001 3
b000000010010 4
b000000010010 5
b1000001100000000000 7
#485000000
0!
0*
#490000000
1!
1*
b000000010010 3
b000000010011 4
b000000010011 5
06
b0001001101101000000 7
b00000001 =
b00000001 >
#495000000
0!
0*
#500000000
1!
1*
b000000010011 3
b000000010100 4
b000000010001 5
16
b1010000000011111101 7
b00000000 =
b00000000 >
b00000000 ?
1@
0A
b00000001 B
#505000000
0!
0*
#510000000
1!
1*
b000000010001 3
b000000010010 4
b000000010010 5
b1000001100000000000 7
#515000000
0!
1(
0*
11
b000000000001 5
#520000000
1!
1&
1)
1*
1/
12
b000000000001 3
b000000000010 4
b000000000010 5
06
b1001011100000000000 7
0;
#525000000
0!
b00000001 $
1'
0(
0*
b00000001 -
10
01
#530000000
1!
0&
0)
1*
0/
02
b000000000010 3
b000000000011 4
b000000000011 5
16
b1000011000000000000 7
#535000000
0!
bZZZZZZZZ $
0'
0*
bZZZZZZZZ -
00
#540000000
1!
1*
b000000000011 3
b000000000100 4
b000000000100 5
06
b1000111111000000001 7
b00000001 =
b00000001 >
b00000010 ?
0@
b00000000 B
#545000000
0!
0*
#550000000
1!
1*
b000000000100 3
b000000000101 4
b000000000101 5
b0100111011000000001 7
b00000000 >
b00000001 B
#555000000
0!
0*
#560000000
1!
1*
b000000000101 3
b000000000110 4
b000000000110 5
16
b1000111000000000000 7
b00000000 =
b00000010 >
b00000000 ?
1@
b00000001 B
0C
#565000000
0!
0*
#570000000
1!
1*
b000000000110 3
b000000000111 4
b000000010001 5
06
b1111010000000000000 7
b00000000 >
b00000010 B
#575000000
0!
0*
#580000000
1!
1*
b000000010001 3
b000000010010 4
b000000010010 5
16
b1000001100000000000 7
1;
1C
#585000000
0!
0*
#590000000
1!
1*
b000000010010 3
b000000010011 4
b000000010011 5
06
b0001001101101000000 7
b00000010 =
b00000001 >
b00000001 ?
0@
b00000000 B
#595000000
0!
0*
#600000000
1!
1*
b000000010011 3
b000000010100 4
b000000010100 5
b1010000000011111101 7
b00000000 =
b00000000 ?
1@
b00000010 B
0C
#605000000
0!
0*
#610000000
1!
1*
b000000010100 3
b000000010101 4
b000000010101 5
b1000001101000000001 7
b00000001 =
b00000000 >
b00000010 ?
0@
b00000001 B
#615000000
0!
0*
#620000000
1!
b00001111 #
b00000001 $
1%
1*
b00001111 ,
b00000001 -
1.
b000000010101 3
b000000010110 4
b000000010110 5
16
b1001101100000001111 7
b00000000 =
b00000001 >
b00001111 ?
b00000000 B
#625000000
0!
1'
0*
10
#630000000
1!
b00000000 #
bZZZZZZZZ $
0%
1*
b00000000 ,
bZZZZZZZZ -
0.
b000000010110 3
b000000010111 4
b000000010111 5
06
b0100001001000000001 7
b00000001 =
b00000000 >
b00000010 ?
b00000001 B
#635000000
0!
0'
0*
00
#640000000
1!
1*
b000000010111 3
b000000011000 4
b000000010001 5
b1110000000000010001 7
b00000000 =
b00000000 ?
1@
b00000010 B
#645000000
0!
0*
#650000000
1!
1*
b000000010001 3
b000000010010 4
b000000010010 5
b1000001100000000000 7
#655000000
0!
0*
#660000000
1!
1*
b000000010010 3
b000000010011 4
b000000010011 5
b0001001101101000000 7
b00000010 =
b00000010 >
#665000000
0!
0*
#670000000
1!
1*
b000000010011 3
b000000010100 4
b000000010001 5
16
b1010000000011111101 7
b00000000 =
b00000001 >
b00000000 ?
1@
0A
b00000010 B
1C
#675000000
0!
0*
#680000000
1!
1*
b000000010001 3
b000000010010 4
b000000010010 5
b1000001100000000000 7
b00000000 >
#685000000
0!
0*
#690000000
1!
1*
b000000010010 3
b000000010011 4
b000000010011 5
06
b0001001101101000000 7
b00000010 =
b00000010 >
#695000000
0!
0*
#700000000
1!
1*
b000000010011 3
b000000010100 4
b000000010001 5
16
b1010000000011111101 7
b00000000 =
b00000001 >
b00000000 ?
1@
0A
b00000010 B
#705000000
0!
0*
#710000000
1!
1*
b000000010001 3
b000000010010 4
b000000010010 5
b1000001100000000000 7
b00000000 >
#715000000
0!
0*
#720000000
1!
1*
b000000010010 3
b000000010011 4
b000000010011 5
06
b0001001101101000000 7
b00000010 =
b00000010 >
#725000000
0!
0*
#730000000
1!
1*
b000000010011 3
b000000010100 4
b000000010001 5
16
b1010000000011111101 7
b00000000 =
b00000001 >
b00000000 ?
1@
0A
b00000010 B
#735000000
0!
0*
#740000000
1!
1*
b000000010001 3
b000000010010 4
b000000010010 5
b1000001100000000000 7
b00000000 >
#745000000
0!
0*
#750000000
1!
1*
b000000010010 3
b000000010011 4
b000000010011 5
06
b0001001101101000000 7
b00000010 =
b00000010 >
#755000000
0!
0*
#760000000
1!
1*
b000000010011 3
b000000010100 4
b000000010001 5
16
b1010000000011111101 7
b00000000 =
b00000001 >
b00000000 ?
1@
0A
b00000010 B
#765000000
0!
0*
#770000000
1!
1*
b000000010001 3
b000000010010 4
b000000010010 5
b1000001100000000000 7
b00000000 >
#775000000
0!
1(
0*
11
b000000000001 5
#780000000
1!
1&
1)
1*
1/
12
b000000000001 3
b000000000010 4
b000000000010 5
06
b1001011100000000000 7
0;
#785000000
0!
b00000010 $
1'
0(
0*
b00000010 -
10
01
#790000000
1!
0&
0)
1*
0/
02
b000000000010 3
b000000000011 4
b000000000011 5
16
b1000011000000000000 7
#795000000
0!
bZZZZZZZZ $
0'
0*
bZZZZZZZZ -
00
#800000000
1!
1*
b000000000011 3
b000000000100 4
b000000000100 5
06
b1000111111000000001 7
b00000010 =
b00000010 >
b00000011 ?
0@
b00000000 B
#805000000
0!
0*
#810000000
1!
1*
b000000000100 3
b000000000101 4
b000000000101 5
b0100111011000000001 7
b00000000 >
b00000010 B
#815000000
0!
0*
#820000000
1!
1*
b000000000101 3
b000000000110 4
b000000000110 5
16
b1000111000000000000 7
b00000000 =
b00000011 >
b00000000 ?
1@
b00000010 B
0C
#825000000
0!
0*
#830000000
1!
1*
b000000000110 3
b000000000111 4
b000000010001 5
06
b1111010000000000000 7
b00000000 >
b00000011 B
#835000000
0!
0*
#840000000
1!
1*
b000000010001 3
b000000010010 4
b000000010010 5
16
b1000001100000000000 7
1;
1C
#845000000
0!
0*
#850000000
1!
1*
b000000010010 3
b000000010011 4
b000000010011 5
06
b0001001101101000000 7
b00000011 =
b00000010 >
b00000001 ?
0@
b00000000 B
#855000000
0!
0*
#860000000
1!
1*
b000000010011 3
b000000010100 4
b000000010100 5
b1010000000011111101 7
b00000000 =
b00000000 ?
1@
0A
b00000011 B
0C
#865000000
0!
0*
#870000000
1!
1*
b000000010100 3
b000000010101 4
b000000010101 5
b1000001101000000001 7
b00000010 =
b00000000 >
b00000011 ?
0@
b00000010 B
#875000000
0!
0*
#880000000
1!
b00001111 #
b00000010 $
1%
1*
b00001111 ,
b00000010 -
1.
b000000010101 3
b000000010110 4
b000000010110 5
16
b1001101100000001111 7
b00000000 =
b00000010 >
b00001111 ?
b00000000 B
#885000000
0!
1'
0*
10
#890000000
1!
b00000000 #
bZZZZZZZZ $
0%
1*
b00000000 ,
bZZZZZZZZ -
0.
b000000010110 3
b000000010111 4
b000000010111 5
06
b0100001001000000001 7
b00000010 =
b00000000 >
b00000011 ?
b00000010 B
#895000000
0!
0'
0*
00
#900000000
1!
1*
b000000010111 3
b000000011000 4
b000000010001 5
b1110000000000010001 7
b00000000 =
b00000000 ?
1@
b00000011 B
#905000000
0!
0*
#910000000
1!
1*
b000000010001 3
b000000010010 4
b000000010010 5
b1000001100000000000 7
#915000000
0!
0*
#920000000
1!
1*
b000000010010 3
b000000010011 4
b000000010011 5
b0001001101101000000 7
b00000011 =
b00000011 >
#925000000
0!
0*
#930000000
1!
1*
b000000010011 3
b000000010100 4
b000000010001 5
16
b1010000000011111101 7
b00000000 =
b00000010 >
b00000000 ?
1@
0A
b00000011 B
1C
#935000000
0!
0*
#940000000
1!
1*
b000000010001 3
b000000010010 4
b000000010010 5
b1000001100000000000 7
b00000000 >
#945000000
0!
0*
#950000000
1!
1*
b000000010010 3
b000000010011 4
b000000010011 5
06
b0001001101101000000 7
b00000011 =
b00000011 >
#955000000
0!
0*
#960000000
1!
1*
b000000010011 3
b000000010100 4
b000000010001 5
16
b1010000000011111101 7
b00000000 =
b00000010 >
b00000000 ?
1@
0A
b00000011 B
#965000000
0!
0*
#970000000
1!
1*
b000000010001 3
b000000010010 4
b000000010010 5
b1000001100000000000 7
b00000000 >
#975000000
0!
0*
#980000000
1!
1*
b000000010010 3
b000000010011 4
b000000010011 5
06
b0001001101101000000 7
b00000011 =
b00000011 >
#985000000
0!
0*
#990000000
1!
1*
b000000010011 3
b000000010100 4
b000000010001 5
16
b1010000000011111101 7
b00000000 =
b00000010 >
b00000000 ?
1@
0A
b00000011 B
#995000000
0!
0*
#1000000000
1!
1*
b000000010001 3
b000000010010 4
b000000010010 5
b1000001100000000000 7
b00000000 >
